ST558 - Project 2 - Shinies!
…
  #the returned data looked odd so pivoting it longer for later use
  value_parse <- bind_rows(value_parse[[2]], .id = "currency") |>
    pivot_longer(cols = everything())
  
  #changing `name` to isocode for later use
  names(value_parse)[names(value_parse) == 'name'] <- 'isocode'

  return(value_parse)
}

#testing the function
just_values("2024-06-05", "zmk")

# A tibble: 770 × 2
   isocode        value
   <chr>          <dbl>
 1 $myro    0.000157   
 2 $wen     0.176      
 3 00       0.000535   
 4 0x0      0.000131   
 5 1000sats 0.115      
 6 10set    0.0000548  
 7 1inch    0.0000797  
 8 aave     0.000000369
 9 abt      0.0000102  
10 ach      0.00124    
# ℹ 760 more rows
…
  #the `$` sign is part of specific crypto currencies so adding that in
  name_parse$name[1:2] <- gsub("^.", "$", name_parse$name[1:2])
  
  #changing `name` to isocode for later use
  names(name_parse)[names(name_parse) == 'name'] <- 'isocode'
  
  return(name_parse)
}

#testing the function
just_names("2024-06-05")

# A tibble: 770 × 3
   obs.number isocode  currency_name
        <int> <chr>    <chr>        
 1          1 $myro    <NA>         
 2          1 $wen     <NA>         
 3          1 00       00 Token     
 4          1 0x0      <NA>         
 5          1 1000sats <NA>         
 6          1 10set    Tenset       
 7          1 1inch    1inch        
 8          1 aave     Aave         
 9          1 abt      Arcblock     
10          1 ach      Alchemy Pay  
# ℹ 760 more rows
…
    full_conversion <- full_conversion |>
      #showing only the name, currency names and the value
      select(isocode, currency_name, value)|>
      #moving the common currencies to the top 
      arrange(!isocode %in% matchlist) 
  
    return(full_conversion)
}

#testing the function
combine_names_currency("2024-06-05", "Aergo")

Joining with `by = join_by(isocode)`

# A tibble: 770 × 3
   isocode  currency_name        value
   <chr>    <chr>                <dbl>
 1 aergo    Aergo           1         
 2 btc      Bitcoin         0.00000160
 3 eth      Ethereum        0.0000298 
 4 eur      Euro            0.104     
 5 usd      US Dollar       0.113     
 6 $myro    <NA>            0.464     
 7 $wen     <NA>          521.        
 8 00       00 Token        1.58      
 9 0x0      <NA>            0.387     
10 1000sats <NA>          341.        
# ℹ 760 more rows
…
  return(country_convert)
}

#testing the function
add_country_type("2024-06-05", "Aergo")

Joining with `by = join_by(ID)`
Joining with `by = join_by(isocode)`
Joining with `by = join_by(isocode)`

# A tibble: 819 × 5
   isocode currency_name      value type     country_name
   <chr>   <chr>              <dbl> <chr>    <chr>       
 1 aergo   Aergo         1          crypto   <NA>        
 2 btc     Bitcoin       0.00000160 crypto   <NA>        
 3 eth     Ethereum      0.0000298  crypto   <NA>        
 4 eur     Euro          0.104      physical Andorra     
 5 eur     Euro          0.104      physical Austria     
 6 eur     Euro          0.104      physical Belgium     
 7 eur     Euro          0.104      physical Croatia     
 8 eur     Euro          0.104      physical Cyprus      
 9 eur     Euro          0.104      physical Estonia     
10 eur     Euro          0.104      physical Finland     
# ℹ 809 more rows
…
  return(without_dups)
}

#testing the function
type_only("2024-06-05", "Aergo")

Joining with `by = join_by(ID)`
Joining with `by = join_by(isocode)`
Joining with `by = join_by(isocode)`

# A tibble: 770 × 4
   isocode  currency_name        value type    
   <chr>    <chr>                <dbl> <chr>   
 1 aergo    Aergo           1          crypto  
 2 btc      Bitcoin         0.00000160 crypto  
 3 eth      Ethereum        0.0000298  crypto  
 4 eur      Euro            0.104      physical
 5 usd      US Dollar       0.113      physical
 6 $myro    <NA>            0.464      crypto  
 7 $wen     <NA>          521.         crypto  
 8 00       00 Token        1.58       crypto  
 9 0x0      <NA>            0.387      crypto  
10 1000sats <NA>          341.         crypto  
# ℹ 760 more rows
…
    return(currency_trend)
  }
}

#testing the function
currency_trend_day("2024-06-05", "Aergo")

Joining with `by = join_by(ID)`
Joining with `by = join_by(isocode)`
Joining with `by = join_by(isocode)`

# A tibble: 770 × 4
   isocode  currency_name        value type    
   <chr>    <chr>                <dbl> <chr>   
 1 aergo    Aergo           1          crypto  
 2 btc      Bitcoin         0.00000185 crypto  
 3 eth      Ethereum        0.0000329  crypto  
 4 eur      Euro            0.116      physical
 5 usd      US Dollar       0.126      physical
 6 $myro    <NA>            0.446      crypto  
 7 $wen     <NA>          511.         crypto  
 8 00       00 Token        1.72       crypto  
 9 0x0      <NA>            0.462      crypto  
10 1000sats <NA>          402.         crypto  
# ℹ 760 more rows
…
  else {
    currency_trend <- type_only(minus_30, full_currency_name)
        
    return(currency_trend)
  }
}

#testing the function
currency_trend_month("2024-06-05", "Aergo")

Joining with `by = join_by(ID)`
Joining with `by = join_by(isocode)`
Joining with `by = join_by(isocode)`

# A tibble: 759 × 4
   isocode  currency_name        value type    
   <chr>    <chr>                <dbl> <chr>   
 1 aergo    Aergo           1          crypto  
 2 btc      Bitcoin         0.00000206 crypto  
 3 eth      Ethereum        0.0000420  crypto  
 4 eur      Euro            0.123      physical
 5 usd      US Dollar       0.132      physical
 6 $myro    <NA>            0.794      crypto  
 7 $wen     <NA>          685.         crypto  
 8 00       00 Token        1.59       crypto  
 9 0x0      <NA>            0.367      crypto  
10 1000sats <NA>          471.         crypto  
# ℹ 749 more rows
…
#testing the function
final_function("2024-06-05", "Aergo")

Joining with `by = join_by(ID)`
Joining with `by = join_by(isocode)`
Joining with `by = join_by(isocode)`
Joining with `by = join_by(ID)`
Joining with `by = join_by(isocode)`
Joining with `by = join_by(isocode)`
Joining with `by = join_by(ID)`
Joining with `by = join_by(isocode)`
Joining with `by = join_by(isocode)`

[[1]]
# A tibble: 819 × 5
   isocode currency_name      value type     country_name
   <chr>   <chr>              <dbl> <chr>    <chr>       
 1 aergo   Aergo         1          crypto   <NA>        
 2 btc     Bitcoin       0.00000160 crypto   <NA>        
 3 eth     Ethereum      0.0000298  crypto   <NA>        
 4 eur     Euro          0.104      physical Andorra     
 5 eur     Euro          0.104      physical Austria     
 6 eur     Euro          0.104      physical Belgium     
 7 eur     Euro          0.104      physical Croatia     
 8 eur     Euro          0.104      physical Cyprus      
 9 eur     Euro          0.104      physical Estonia     
10 eur     Euro          0.104      physical Finland     
# ℹ 809 more rows

[[2]]
# A tibble: 770 × 4
   isocode  currency_name        value type    
   <chr>    <chr>                <dbl> <chr>   
 1 aergo    Aergo           1          crypto  
 2 btc      Bitcoin         0.00000185 crypto  
 3 eth      Ethereum        0.0000329  crypto  
 4 eur      Euro            0.116      physical
 5 usd      US Dollar       0.126      physical
 6 $myro    <NA>            0.446      crypto  
 7 $wen     <NA>          511.         crypto  
 8 00       00 Token        1.72       crypto  
 9 0x0      <NA>            0.462      crypto  
10 1000sats <NA>          402.         crypto  
# ℹ 760 more rows

[[3]]
# A tibble: 759 × 4
   isocode  currency_name        value type    
   <chr>    <chr>                <dbl> <chr>   
 1 aergo    Aergo           1          crypto  
 2 btc      Bitcoin         0.00000206 crypto  
 3 eth      Ethereum        0.0000420  crypto  
 4 eur      Euro            0.123      physical
 5 usd      US Dollar       0.132      physical
 6 $myro    <NA>            0.794      crypto  
 7 $wen     <NA>          685.         crypto  
 8 00       00 Token        1.59       crypto  
 9 0x0      <NA>            0.367      crypto  
10 1000sats <NA>          471.         crypto  
# ℹ 749 more rows
…
